…
``` r
# Join the table data to the ACS data (this requires tweaking the tidycensus
# variable name to make a new column called column_id that matches the name
# and underbar-less format of the metadata). I'll also simplify county names.

MO = MO %>% 
      mutate( column_id = str_replace(variable,'_',''),
              NAME      = str_replace(NAME,' County, Missouri','')) %>% 
      left_join(mytab_info, by='column_id')


print(MO, n=50)  
```

    ## # A tibble: 1,955 × 8
    ##    GEOID NAME     variable   estimate   moe column_id table_id column_title     
    ##    <chr> <chr>    <chr>         <dbl> <dbl> <chr>     <chr>    <chr>            
    ##  1 29001 Adair    B13016_001     7307   154 B13016001 B13016   Total:           
    ##  2 29001 Adair    B13016_002      247    79 B13016002 B13016   Women who had a …
    ##  3 29001 Adair    B13016_003        2     5 B13016003 B13016   15 to 19 years o…
    ##  4 29001 Adair    B13016_004       57    31 B13016004 B13016   20 to 24 years o…
    ##  5 29001 Adair    B13016_005       72    40 B13016005 B13016   25 to 29 years o…
    ##  6 29001 Adair    B13016_006       90    54 B13016006 B13016   30 to 34 years o…
    ##  7 29001 Adair    B13016_007       26    28 B13016007 B13016   35 to 39 years o…
    ##  8 29001 Adair    B13016_008        0    22 B13016008 B13016   40 to 44 years o…
    ##  9 29001 Adair    B13016_009        0    22 B13016009 B13016   45 to 50 years o…
    ## 10 29001 Adair    B13016_010     7060   169 B13016010 B13016   Women who did no…
    ## 11 29001 Adair    B13016_011     1536    56 B13016011 B13016   15 to 19 years o…
    ## 12 29001 Adair    B13016_012     2631   150 B13016012 B13016   20 to 24 years o…
    ## 13 29001 Adair    B13016_013      616    67 B13016013 B13016   25 to 29 years o…
    ## 14 29001 Adair    B13016_014      639    97 B13016014 B13016   30 to 34 years o…
    ## 15 29001 Adair    B13016_015      442    85 B13016015 B13016   35 to 39 years o…
    ## 16 29001 Adair    B13016_016      546    86 B13016016 B13016   40 to 44 years o…
    ## 17 29001 Adair    B13016_017      650    60 B13016017 B13016   45 to 50 years o…
    ## 18 29003 Andrew   B13016_001     3651    98 B13016001 B13016   Total:           
    ## 19 29003 Andrew   B13016_002      107    60 B13016002 B13016   Women who had a …
    ## 20 29003 Andrew   B13016_003        1     2 B13016003 B13016   15 to 19 years o…
    ## 21 29003 Andrew   B13016_004       18    25 B13016004 B13016   20 to 24 years o…
    ## 22 29003 Andrew   B13016_005       35    30 B13016005 B13016   25 to 29 years o…
    ## 23 29003 Andrew   B13016_006       19    20 B13016006 B13016   30 to 34 years o…
    ## 24 29003 Andrew   B13016_007       17    15 B13016007 B13016   35 to 39 years o…
    ## 25 29003 Andrew   B13016_008        0    19 B13016008 B13016   40 to 44 years o…
    ## 26 29003 Andrew   B13016_009       17    28 B13016009 B13016   45 to 50 years o…
    ## 27 29003 Andrew   B13016_010     3544   119 B13016010 B13016   Women who did no…
    ## 28 29003 Andrew   B13016_011      520    49 B13016011 B13016   15 to 19 years o…
    ## 29 29003 Andrew   B13016_012      379    25 B13016012 B13016   20 to 24 years o…
    ## 30 29003 Andrew   B13016_013      442    20 B13016013 B13016   25 to 29 years o…
    ## 31 29003 Andrew   B13016_014      491    44 B13016014 B13016   30 to 34 years o…
    ## 32 29003 Andrew   B13016_015      427   121 B13016015 B13016   35 to 39 years o…
    ## 33 29003 Andrew   B13016_016      598   122 B13016016 B13016   40 to 44 years o…
    ## 34 29003 Andrew   B13016_017      687    84 B13016017 B13016   45 to 50 years o…
    ## 35 29005 Atchison B13016_001      959    31 B13016001 B13016   Total:           
    ## 36 29005 Atchison B13016_002       52    24 B13016002 B13016   Women who had a …
    ## 37 29005 Atchison B13016_003        0    17 B13016003 B13016   15 to 19 years o…
    ## 38 29005 Atchison B13016_004        5     7 B13016004 B13016   20 to 24 years o…
    ## 39 29005 Atchison B13016_005       28    18 B13016005 B13016   25 to 29 years o…
    ## 40 29005 Atchison B13016_006       13    15 B13016006 B13016   30 to 34 years o…
    ## 41 29005 Atchison B13016_007        5     9 B13016007 B13016   35 to 39 years o…
    ## 42 29005 Atchison B13016_008        0    17 B13016008 B13016   40 to 44 years o…
    ## 43 29005 Atchison B13016_009        1     2 B13016009 B13016   45 to 50 years o…
    ## 44 29005 Atchison B13016_010      907    38 B13016010 B13016   Women who did no…
    ## 45 29005 Atchison B13016_011      132    17 B13016011 B13016   15 to 19 years o…
    ## 46 29005 Atchison B13016_012      113    12 B13016012 B13016   20 to 24 years o…
    ## 47 29005 Atchison B13016_013      114    17 B13016013 B13016   25 to 29 years o…
    ## 48 29005 Atchison B13016_014      110    16 B13016014 B13016   30 to 34 years o…
    ## 49 29005 Atchison B13016_015      150    28 B13016015 B13016   35 to 39 years o…
    ## 50 29005 Atchison B13016_016      103    29 B13016016 B13016   40 to 44 years o…
    ## # … with 1,905 more rows
…
